Hoogteschatting op basis van opgegeven afgeleid model — hoogteschatting.afgeleid • dhcurve
…
Afgeleidmodel[[1]] %>%
  inner_join(
    Afgeleidmodel[[2]],
    by = c("BMS", "DOMEIN_ID")
  ) %>%
  group_by(
    .data$BMS,
    .data$DOMEIN_ID
  ) %>%
  do(
    hoogteschatting.afgeleid(.$Model[[1]],
                              select(., -Model))
  ) %>%
  ungroup()
#> # A tibble: 74 × 22
#>    DOMEIN_ID BMS    BOS_BHI nBomenOmtrek05 nBomenInterval nBomenIntervalOmtrek05
#>    <chr>     <chr>  <chr>            <int>          <int>                  <int>
#>  1 G         testb… Domein…             39             50                     39
#>  2 G         testb… Domein…             39             50                     39
#>  3 G         testb… Domein…             39             50                     39
#>  4 G         testb… Domein…             39             50                     39
#>  5 G         testb… Domein…             39             50                     39
#>  6 G         testb… Domein…             39             50                     39
#>  7 G         testb… Domein…             39             50                     39
#>  8 G         testb… Domein…             39             50                     39
#>  9 G         testb… Domein…             39             50                     39
#> 10 G         testb… Domein…             39             50                     39
#> # ℹ 64 more rows
#> # ℹ 16 more variables: nBomen <int>, Q5k <dbl>, Q95k <dbl>, Omtrek <dbl>,
#> #   H_VL_finaal <dbl>, IDbms <dbl>, C13 <dbl>, HOOGTE <dbl>, Status <chr>,
#> #   ID <chr>, Rijnr <int>, logOmtrek <dbl>, logOmtrek2 <dbl>, Q5 <dbl>,
#> #   Q95 <dbl>, H_D_finaal <dbl>
…
